# Blender v2.77 (sub 0) OBJ File: ''
# www.blender.org
o Icosphere
v 0.000000 -1.000000 0.000000
v 0.723607 -0.447220 0.525725
v -0.276388 -0.447220 0.850649
v -0.894426 -0.447216 0.000000
v -0.276388 -0.447220 -0.850649
v 0.723607 -0.447220 -0.525725
v 0.276388 0.447220 0.850649
v -0.723607 0.447220 0.525725
v -0.723607 0.447220 -0.525725
v 0.276388 0.447220 -0.850649
v 0.894426 0.447216 0.000000
v 0.000000 1.000000 0.000000
v -0.162456 -0.850654 0.499995
v 0.425323 -0.850654 0.309011
v 0.262869 -0.525738 0.809012
v 0.850648 -0.525736 0.000000
v 0.425323 -0.850654 -0.309011
v -0.525730 -0.850652 0.000000
v -0.688189 -0.525736 0.499997
v -0.162456 -0.850654 -0.499995
v -0.688189 -0.525736 -0.499997
v 0.262869 -0.525738 -0.809012
v 0.951058 0.000000 0.309013
v 0.951058 0.000000 -0.309013
v 0.000000 0.000000 1.000000
v 0.587786 0.000000 0.809017
v -0.951058 0.000000 0.309013
v -0.587786 0.000000 0.809017
v -0.587786 0.000000 -0.809017
v -0.951058 0.000000 -0.309013
v 0.587786 0.000000 -0.809017
v 0.000000 0.000000 -1.000000
v 0.688189 0.525736 0.499997
v -0.262869 0.525738 0.809012
v -0.850648 0.525736 0.000000
v -0.262869 0.525738 -0.809012
v 0.688189 0.525736 -0.499997
v 0.162456 0.850654 0.499995
v 0.525730 0.850652 0.000000
v -0.425323 0.850654 0.309011
v -0.425323 0.850654 -0.309011
v 0.162456 0.850654 -0.499995
vt 0.5000 0.5000
vt 0.7127 0.3455
vt 0.4188 0.2500
vt 0.2371 0.2764
vt 0.3455 0.0747
vt 0.5000 0.2371
vt 0.2371 0.5000
vt 0.4188 0.7500
vt 0.7127 0.6545
vt 0.3455 0.5000
vt 0.3618 0.2764
vt 0.6314 0.2371
vt 0.5000 0.5000
vt 0.5000 0.2764
vt 0.2500 0.2371
vt 0.3455 0.5000
vt 0.3618 0.2764
vt 0.1559 0.2371
vt 0.2061 0.5000
vt 0.8618 0.2764
vt 0.6314 0.2371
vt 0.7939 0.5000
vt 0.0955 0.5000
vt 0.2061 0.5000
vt 0.6545 0.5000
vt 0.5000 0.5000
vt 0.7629 0.2764
vt 0.9045 0.5000
vt 0.6545 0.5000
vt 0.6382 0.0747
vt 0.8441 0.2500
vt 0.5812 0.2500
vt 0.1382 0.2371
vt 0.3686 0.0955
vt 0.2873 0.3455
vt 0.7629 0.7236
vt 0.5000 0.7629
vt 0.6545 0.9253
vt 0.6382 0.7236
vt 0.3686 0.7629
vt 0.5812 0.9253
vt 0.5000 0.7236
vt 0.7500 0.7629
vt 0.5000 0.9253
vt 0.7629 0.5000
vt 0.5812 0.7500
vt 0.5000 0.5000
vt 0.8441 0.7500
vt 0.6382 0.9253
vt 0.2873 0.6545
vt 0.3686 0.9045
vt 0.1382 0.7629
vt 0.0747 0.5000
vt 0.2371 0.7236
vt 0.3455 0.9253
vt 0.3686 0.7629
vt 0.6382 0.7236
vt 0.5812 0.9253
vt 0.2500 0.7629
vt 0.8441 0.7629
vt 0.1382 0.7236
vt 0.1382 0.7236
vt 0.7939 0.5000
vt 0.8441 0.7629
vt 0.9045 0.5000
vt 0.7500 0.2371
vt 0.0955 0.5000
vt 0.1559 0.2371
vt 0.8618 0.2764
vt 0.6314 0.9045
vt 0.8618 0.7629
vt 0.4188 0.0747
vt 0.1559 0.7500
vt 0.3618 0.9253
vt 0.5000 0.0747
vt 0.1559 0.2500
vt 0.3618 0.0747
vt 0.6545 0.0747
vt 0.9253 0.5000
vt 0.4188 0.0747
vt 0.6314 0.0955
vt 0.8618 0.2371
vn 0.1024 -0.9435 0.3151
vn 0.7002 -0.6617 0.2680
vn -0.2680 -0.9435 0.1947
vn -0.2680 -0.9435 -0.1947
vn 0.1024 -0.9435 -0.3151
vn 0.9050 -0.3304 0.2680
vn 0.0247 -0.3304 0.9435
vn -0.8897 -0.3304 0.3151
vn -0.5746 -0.3304 -0.7488
vn 0.5346 -0.3304 -0.7779
vn 0.8026 -0.1256 0.5831
vn -0.3066 -0.1256 0.9435
vn -0.9921 -0.1256 0.0000
vn -0.3066 -0.1256 -0.9435
vn 0.8026 -0.1256 -0.5831
vn 0.4089 0.6617 0.6284
vn -0.4713 0.6617 0.5831
vn -0.7002 0.6617 -0.2680
vn 0.0385 0.6617 -0.7488
vn 0.7240 0.6617 -0.1947
vn 0.2680 0.9435 -0.1947
vn 0.4911 0.7947 -0.3568
vn 0.4089 0.6617 -0.6284
vn -0.1024 0.9435 -0.3151
vn -0.1876 0.7947 -0.5773
vn -0.4713 0.6617 -0.5831
vn -0.3313 0.9435 0.0000
vn -0.6071 0.7947 0.0000
vn -0.7002 0.6617 0.2680
vn -0.1024 0.9435 0.3151
vn -0.1876 0.7947 0.5773
vn 0.0385 0.6617 0.7488
vn 0.2680 0.9435 0.1947
vn 0.4911 0.7947 0.3568
vn 0.7240 0.6617 0.1947
vn 0.8897 0.3304 -0.3151
vn 0.7947 0.1876 -0.5773
vn 0.5746 0.3304 -0.7488
vn -0.0247 0.3304 -0.9435
vn -0.3035 0.1876 -0.9342
vn -0.5346 0.3304 -0.7779
vn -0.9050 0.3304 -0.2680
vn -0.9822 0.1876 0.0000
vn -0.9050 0.3304 0.2680
vn -0.5346 0.3304 0.7779
vn -0.3035 0.1876 0.9342
vn -0.0247 0.3304 0.9435
vn 0.5746 0.3304 0.7488
vn 0.7947 0.1876 0.5773
vn 0.8897 0.3304 0.3151
vn 0.3066 0.1256 -0.9435
vn 0.3035 -0.1876 -0.9342
vn 0.0247 -0.3304 -0.9435
vn -0.8026 0.1256 -0.5831
vn -0.7947 -0.1876 -0.5773
vn -0.8897 -0.3304 -0.3151
vn -0.8026 0.1256 0.5831
vn -0.7947 -0.1876 0.5773
vn -0.5746 -0.3304 0.7488
vn 0.3066 0.1256 0.9435
vn 0.3035 -0.1876 0.9342
vn 0.5346 -0.3304 0.7779
vn 0.9921 0.1256 0.0000
vn 0.9822 -0.1876 0.0000
vn 0.9050 -0.3304 -0.2680
vn 0.4713 -0.6617 -0.5831
vn 0.1876 -0.7947 -0.5773
vn -0.0385 -0.6617 -0.7488
vn -0.4089 -0.6617 -0.6284
vn -0.4911 -0.7947 -0.3568
vn -0.7240 -0.6617 -0.1947
vn -0.7240 -0.6617 0.1947
vn -0.4911 -0.7947 0.3568
vn -0.4089 -0.6617 0.6284
vn 0.7002 -0.6617 -0.2680
vn 0.6071 -0.7947 0.0000
vn 0.3313 -0.9435 0.0000
vn -0.0385 -0.6617 0.7488
vn 0.1876 -0.7947 0.5773
vn 0.4713 -0.6617 0.5831
s off
f 1/1/1 14/2/1 13/3/1
f 2/4/2 14/5/2 16/6/2
f 1/1/3 13/3/3 18/7/3
f 1/1/4 18/7/4 20/8/4
f 1/1/5 20/8/5 17/9/5
f 2/4/6 16/6/6 23/10/6
f 3/11/7 15/12/7 25/13/7
f 4/14/8 19/15/8 27/16/8
f 5/17/9 21/18/9 29/19/9
f 6/20/10 22/21/10 31/22/10
f 2/4/11 23/10/11 26/23/11
f 3/11/12 25/13/12 28/24/12
f 4/14/13 27/16/13 30/25/13
f 5/17/14 29/19/14 32/26/14
f 6/27/15 31/28/15 24/29/15
f 7/30/16 33/31/16 38/32/16
f 8/33/17 34/34/17 40/35/17
f 9/36/18 35/37/18 41/38/18
f 10/39/19 36/40/19 42/41/19
f 11/42/20 37/43/20 39/44/20
f 39/45/21 42/46/21 12/47/21
f 39/45/22 37/48/22 42/46/22
f 37/48/23 10/49/23 42/46/23
f 42/46/24 41/50/24 12/47/24
f 42/46/25 36/51/25 41/50/25
f 36/51/26 9/52/26 41/50/26
f 41/50/27 40/35/27 12/47/27
f 41/50/28 35/53/28 40/35/28
f 35/37/29 8/54/29 40/55/29
f 40/35/30 38/32/30 12/47/30
f 40/35/31 34/34/31 38/32/31
f 34/56/32 7/57/32 38/58/32
f 38/32/33 39/45/33 12/47/33
f 38/32/34 33/31/34 39/45/34
f 33/59/35 11/42/35 39/44/35
f 24/29/36 37/43/36 11/42/36
f 24/29/37 31/28/37 37/43/37
f 31/22/38 10/39/38 37/60/38
f 32/26/39 36/40/39 10/39/39
f 32/26/40 29/19/40 36/40/40
f 29/19/41 9/61/41 36/40/41
f 30/25/42 35/37/42 9/36/42
f 30/25/43 27/16/43 35/37/43
f 27/16/44 8/54/44 35/37/44
f 28/24/45 34/56/45 8/62/45
f 28/24/46 25/13/46 34/56/46
f 25/13/47 7/57/47 34/56/47
f 26/63/48 33/64/48 7/57/48
f 26/23/49 23/10/49 33/59/49
f 23/10/50 11/42/50 33/59/50
f 31/22/51 32/26/51 10/39/51
f 31/22/52 22/21/52 32/26/52
f 22/21/53 5/17/53 32/26/53
f 29/65/54 30/25/54 9/36/54
f 29/65/55 21/66/55 30/25/55
f 21/66/56 4/14/56 30/25/56
f 27/16/57 28/67/57 8/54/57
f 27/16/58 19/15/58 28/67/58
f 19/68/59 3/11/59 28/24/59
f 25/13/60 26/63/60 7/57/60
f 25/13/61 15/12/61 26/63/61
f 15/12/62 2/69/62 26/63/62
f 23/10/63 24/29/63 11/42/63
f 23/10/64 16/6/64 24/29/64
f 16/6/65 6/27/65 24/29/65
f 17/9/66 22/70/66 6/71/66
f 17/9/67 20/8/67 22/70/67
f 20/72/68 5/17/68 22/21/68
f 20/8/69 21/73/69 5/74/69
f 20/8/70 18/7/70 21/73/70
f 18/75/71 4/14/71 21/66/71
f 18/75/72 19/15/72 4/14/72
f 18/7/73 13/3/73 19/76/73
f 13/3/74 3/77/74 19/76/74
f 16/6/75 17/78/75 6/27/75
f 16/79/76 14/2/76 17/9/76
f 14/2/77 1/1/77 17/9/77
f 13/80/78 15/12/78 3/11/78
f 13/3/79 14/2/79 15/81/79
f 14/2/80 2/82/80 15/81/80
